<?xml version="1.0" encoding="UTF-8"?>
<session version="1.0">
<refactoring comment="Rename compilation unit &apos;simulation.java&apos; to &apos;Main.java&apos;&#x0D;&#x0A;- Original project: &apos;Simulation&apos;&#x0D;&#x0A;- Original element: &apos;simulation.java&apos;&#x0D;&#x0A;- Renamed element: &apos;Main.java&apos;" description="Rename compilation unit &apos;simulation.java&apos;" flags="2" id="org.eclipse.jdt.ui.rename.compilationunit" input="/src&lt;{simulation.java" name="Main.java" references="false" stamp="1557511156935" version="1.0"/>
</session>